info face="Benguiat Gothic Bold BT" size=24 bold=0 italic=0 charset="" unicode=0 stretchH=100 smooth=1 aa=1 padding=0,0,0,0 spacing=1,1
common lineHeight=30 base=24 scaleW=512 scaleH=512 pages=1 packed=0
page id=0 file="frogzilla-green-24pt.png"
chars count=95
char id=32   x=0     y=0     width=0     height=0     xoffset=0     yoffset=24    xadvance=7     page=0  chnl=0 
char id=124   x=0     y=0     width=4     height=26     xoffset=5     yoffset=5    xadvance=12     page=0  chnl=0 
char id=106   x=4     y=0     width=13     height=25     xoffset=-3     yoffset=5    xadvance=6     page=0  chnl=0 
char id=125   x=17     y=0     width=10     height=24     xoffset=1     yoffset=6    xadvance=12     page=0  chnl=0 
char id=123   x=27     y=0     width=10     height=24     xoffset=2     yoffset=6    xadvance=12     page=0  chnl=0 
char id=93   x=37     y=0     width=10     height=24     xoffset=-1     yoffset=7    xadvance=8     page=0  chnl=0 
char id=91   x=47     y=0     width=8     height=24     xoffset=1     yoffset=7    xadvance=8     page=0  chnl=0 
char id=41   x=55     y=0     width=10     height=24     xoffset=-1     yoffset=7    xadvance=8     page=0  chnl=0 
char id=40   x=65     y=0     width=9     height=24     xoffset=1     yoffset=7    xadvance=8     page=0  chnl=0 
char id=127   x=74     y=0     width=14     height=23     xoffset=1     yoffset=6    xadvance=14     page=0  chnl=0 
char id=36   x=88     y=0     width=15     height=23     xoffset=1     yoffset=5    xadvance=14     page=0  chnl=0 
char id=64   x=103     y=0     width=24     height=23     xoffset=1     yoffset=6    xadvance=24     page=0  chnl=0 
char id=81   x=127     y=0     width=17     height=21     xoffset=1     yoffset=7    xadvance=17     page=0  chnl=0 
char id=92   x=144     y=0     width=10     height=20     xoffset=0     yoffset=8    xadvance=8     page=0  chnl=0 
char id=47   x=154     y=0     width=10     height=20     xoffset=0     yoffset=8    xadvance=8     page=0  chnl=0 
char id=105   x=164     y=0     width=5     height=20     xoffset=1     yoffset=5    xadvance=6     page=0  chnl=0 
char id=38   x=169     y=0     width=18     height=19     xoffset=1     yoffset=7    xadvance=17     page=0  chnl=0 
char id=35   x=187     y=0     width=18     height=19     xoffset=1     yoffset=6    xadvance=18     page=0  chnl=0 
char id=113   x=205     y=0     width=13     height=19     xoffset=1     yoffset=11    xadvance=13     page=0  chnl=0 
char id=112   x=218     y=0     width=13     height=19     xoffset=1     yoffset=11    xadvance=13     page=0  chnl=0 
char id=108   x=231     y=0     width=5     height=19     xoffset=1     yoffset=6    xadvance=6     page=0  chnl=0 
char id=107   x=236     y=0     width=11     height=19     xoffset=1     yoffset=6    xadvance=12     page=0  chnl=0 
char id=104   x=247     y=0     width=12     height=19     xoffset=1     yoffset=6    xadvance=13     page=0  chnl=0 
char id=103   x=259     y=0     width=14     height=19     xoffset=1     yoffset=11    xadvance=14     page=0  chnl=0 
char id=102   x=273     y=0     width=11     height=19     xoffset=0     yoffset=6    xadvance=8     page=0  chnl=0 
char id=100   x=284     y=0     width=13     height=19     xoffset=1     yoffset=6    xadvance=13     page=0  chnl=0 
char id=98   x=297     y=0     width=13     height=19     xoffset=1     yoffset=6    xadvance=13     page=0  chnl=0 
char id=82   x=310     y=0     width=16     height=19     xoffset=2     yoffset=7    xadvance=16     page=0  chnl=0 
char id=37   x=326     y=0     width=22     height=18     xoffset=1     yoffset=7    xadvance=21     page=0  chnl=0 
char id=63   x=348     y=0     width=13     height=18     xoffset=0     yoffset=7    xadvance=11     page=0  chnl=0 
char id=33   x=361     y=0     width=5     height=18     xoffset=2     yoffset=7    xadvance=7     page=0  chnl=0 
char id=48   x=366     y=0     width=15     height=18     xoffset=1     yoffset=7    xadvance=14     page=0  chnl=0 
char id=56   x=381     y=0     width=15     height=18     xoffset=1     yoffset=7    xadvance=14     page=0  chnl=0 
char id=55   x=396     y=0     width=12     height=18     xoffset=2     yoffset=7    xadvance=14     page=0  chnl=0 
char id=54   x=408     y=0     width=15     height=18     xoffset=1     yoffset=7    xadvance=14     page=0  chnl=0 
char id=53   x=423     y=0     width=15     height=18     xoffset=1     yoffset=7    xadvance=14     page=0  chnl=0 
char id=52   x=438     y=0     width=16     height=18     xoffset=1     yoffset=7    xadvance=14     page=0  chnl=0 
char id=51   x=454     y=0     width=15     height=18     xoffset=1     yoffset=7    xadvance=14     page=0  chnl=0 
char id=50   x=469     y=0     width=15     height=18     xoffset=1     yoffset=7    xadvance=14     page=0  chnl=0 
char id=121   x=484     y=0     width=13     height=18     xoffset=1     yoffset=12    xadvance=12     page=0  chnl=0 
char id=116   x=497     y=0     width=11     height=18     xoffset=0     yoffset=7    xadvance=9     page=0  chnl=0 
char id=90   x=0     y=26     width=13     height=18     xoffset=1     yoffset=7    xadvance=12     page=0  chnl=0 
char id=89   x=13     y=26     width=14     height=18     xoffset=0     yoffset=7    xadvance=13     page=0  chnl=0 
char id=88   x=27     y=26     width=15     height=18     xoffset=1     yoffset=8    xadvance=14     page=0  chnl=0 
char id=87   x=42     y=26     width=21     height=18     xoffset=1     yoffset=7    xadvance=20     page=0  chnl=0 
char id=86   x=63     y=26     width=16     height=18     xoffset=1     yoffset=7    xadvance=15     page=0  chnl=0 
char id=85   x=79     y=26     width=15     height=18     xoffset=1     yoffset=7    xadvance=16     page=0  chnl=0 
char id=84   x=94     y=26     width=14     height=18     xoffset=0     yoffset=7    xadvance=12     page=0  chnl=0 
char id=83   x=108     y=26     width=15     height=18     xoffset=0     yoffset=7    xadvance=14     page=0  chnl=0 
char id=80   x=123     y=26     width=14     height=18     xoffset=2     yoffset=7    xadvance=13     page=0  chnl=0 
char id=79   x=137     y=26     width=16     height=18     xoffset=1     yoffset=7    xadvance=17     page=0  chnl=0 
char id=78   x=153     y=26     width=14     height=18     xoffset=2     yoffset=7    xadvance=15     page=0  chnl=0 
char id=77   x=167     y=26     width=17     height=18     xoffset=1     yoffset=7    xadvance=17     page=0  chnl=0 
char id=74   x=184     y=26     width=11     height=18     xoffset=0     yoffset=7    xadvance=10     page=0  chnl=0 
char id=72   x=195     y=26     width=14     height=18     xoffset=2     yoffset=7    xadvance=15     page=0  chnl=0 
char id=71   x=209     y=26     width=16     height=18     xoffset=1     yoffset=7    xadvance=16     page=0  chnl=0 
char id=70   x=225     y=26     width=12     height=18     xoffset=2     yoffset=7    xadvance=12     page=0  chnl=0 
char id=69   x=237     y=26     width=13     height=18     xoffset=2     yoffset=7    xadvance=13     page=0  chnl=0 
char id=68   x=250     y=26     width=16     height=18     xoffset=2     yoffset=7    xadvance=16     page=0  chnl=0 
char id=67   x=266     y=26     width=15     height=18     xoffset=1     yoffset=7    xadvance=14     page=0  chnl=0 
char id=66   x=281     y=26     width=14     height=18     xoffset=2     yoffset=7    xadvance=15     page=0  chnl=0 
char id=65   x=295     y=26     width=15     height=18     xoffset=1     yoffset=7    xadvance=16     page=0  chnl=0 
char id=57   x=310     y=26     width=15     height=17     xoffset=1     yoffset=8    xadvance=14     page=0  chnl=0 
char id=49   x=325     y=26     width=12     height=17     xoffset=2     yoffset=8    xadvance=14     page=0  chnl=0 
char id=76   x=337     y=26     width=11     height=17     xoffset=2     yoffset=8    xadvance=11     page=0  chnl=0 
char id=75   x=348     y=26     width=14     height=17     xoffset=2     yoffset=8    xadvance=14     page=0  chnl=0 
char id=73   x=362     y=26     width=5     height=17     xoffset=2     yoffset=8    xadvance=6     page=0  chnl=0 
char id=43   x=367     y=26     width=16     height=16     xoffset=3     yoffset=9    xadvance=20     page=0  chnl=0 
char id=59   x=383     y=26     width=5     height=15     xoffset=1     yoffset=13    xadvance=7     page=0  chnl=0 
char id=62   x=388     y=26     width=16     height=14     xoffset=3     yoffset=10    xadvance=20     page=0  chnl=0 
char id=60   x=404     y=26     width=16     height=14     xoffset=3     yoffset=10    xadvance=20     page=0  chnl=0 
char id=122   x=420     y=26     width=11     height=14     xoffset=0     yoffset=11    xadvance=10     page=0  chnl=0 
char id=119   x=431     y=26     width=18     height=14     xoffset=1     yoffset=11    xadvance=17     page=0  chnl=0 
char id=117   x=449     y=26     width=12     height=14     xoffset=1     yoffset=11    xadvance=13     page=0  chnl=0 
char id=115   x=461     y=26     width=13     height=14     xoffset=0     yoffset=11    xadvance=12     page=0  chnl=0 
char id=114   x=474     y=26     width=9     height=14     xoffset=1     yoffset=11    xadvance=8     page=0  chnl=0 
char id=110   x=483     y=26     width=12     height=14     xoffset=1     yoffset=11    xadvance=13     page=0  chnl=0 
char id=109   x=0     y=44     width=19     height=14     xoffset=1     yoffset=11    xadvance=19     page=0  chnl=0 
char id=101   x=19     y=44     width=14     height=14     xoffset=1     yoffset=11    xadvance=13     page=0  chnl=0 
char id=99   x=33     y=44     width=13     height=14     xoffset=1     yoffset=11    xadvance=12     page=0  chnl=0 
char id=97   x=46     y=44     width=12     height=14     xoffset=1     yoffset=11    xadvance=12     page=0  chnl=0 
char id=120   x=58     y=44     width=13     height=13     xoffset=1     yoffset=12    xadvance=12     page=0  chnl=0 
char id=118   x=71     y=44     width=12     height=13     xoffset=1     yoffset=12    xadvance=13     page=0  chnl=0 
char id=111   x=83     y=44     width=13     height=13     xoffset=1     yoffset=12    xadvance=13     page=0  chnl=0 
char id=58   x=96     y=44     width=4     height=12     xoffset=2     yoffset=13    xadvance=7     page=0  chnl=0 
char id=42   x=100     y=44     width=9     height=10     xoffset=0     yoffset=7    xadvance=8     page=0  chnl=0 
char id=61   x=109     y=44     width=16     height=9     xoffset=3     yoffset=12    xadvance=20     page=0  chnl=0 
char id=94   x=125     y=44     width=15     height=9     xoffset=5     yoffset=6    xadvance=24     page=0  chnl=0 
char id=44   x=140     y=44     width=5     height=9     xoffset=1     yoffset=19    xadvance=7     page=0  chnl=0 
char id=39   x=145     y=44     width=4     height=9     xoffset=1     yoffset=6    xadvance=4     page=0  chnl=0 
char id=34   x=149     y=44     width=8     height=9     xoffset=1     yoffset=6    xadvance=8     page=0  chnl=0 
char id=126   x=157     y=44     width=18     height=6     xoffset=2     yoffset=14    xadvance=20     page=0  chnl=0 
char id=46   x=175     y=44     width=4     height=6     xoffset=2     yoffset=19    xadvance=7     page=0  chnl=0 
char id=96   x=179     y=44     width=6     height=6     xoffset=3     yoffset=6    xadvance=12     page=0  chnl=0 
char id=45   x=185     y=44     width=9     height=5     xoffset=1     yoffset=16    xadvance=9     page=0  chnl=0 
char id=95   x=194     y=44     width=14     height=4     xoffset=0     yoffset=27    xadvance=12     page=0  chnl=0 
kernings count=202
kerning first=107  second=97  amount=1
kerning first=102  second=44  amount=-1
kerning first=102  second=46  amount=-1
kerning first=102  second=116  amount=1
kerning first=82  second=97  amount=1
kerning first=89  second=44  amount=-1
kerning first=89  second=45  amount=-1
kerning first=89  second=46  amount=-1
kerning first=89  second=65  amount=-1
kerning first=89  second=101  amount=-1
kerning first=89  second=111  amount=-1
kerning first=87  second=44  amount=-1
kerning first=87  second=46  amount=-1
kerning first=86  second=44  amount=-2
kerning first=86  second=46  amount=-2
kerning first=86  second=65  amount=-1
kerning first=84  second=44  amount=-2
kerning first=84  second=45  amount=-1
kerning first=84  second=46  amount=-2
kerning first=84  second=58  amount=-1
kerning first=84  second=59  amount=-1
kerning first=84  second=65  amount=-1
kerning first=84  second=97  amount=-1
kerning first=84  second=99  amount=-2
kerning first=84  second=101  amount=-2
kerning first=84  second=111  amount=-2
kerning first=84  second=114  amount=-1
kerning first=84  second=115  amount=-1
kerning first=84  second=117  amount=-2
kerning first=84  second=119  amount=-2
kerning first=84  second=121  amount=-1
kerning first=80  second=44  amount=-4
kerning first=80  second=45  amount=-1
kerning first=80  second=46  amount=-4
kerning first=80  second=58  amount=-1
kerning first=80  second=59  amount=-1
kerning first=80  second=65  amount=-2
kerning first=80  second=89  amount=1
kerning first=80  second=97  amount=-1
kerning first=80  second=101  amount=-1
kerning first=80  second=111  amount=-1
kerning first=80  second=114  amount=-1
kerning first=80  second=117  amount=-1
kerning first=70  second=44  amount=-3
kerning first=70  second=45  amount=-1
kerning first=70  second=46  amount=-3
kerning first=70  second=58  amount=-1
kerning first=70  second=59  amount=-1
kerning first=70  second=65  amount=-1
kerning first=70  second=101  amount=-2
kerning first=70  second=111  amount=-1
kerning first=70  second=117  amount=-1
kerning first=65  second=84  amount=-1
kerning first=65  second=86  amount=-1
kerning first=65  second=89  amount=-1
kerning first=76  second=65  amount=1
kerning first=76  second=84  amount=-1
kerning first=76  second=89  amount=-1
kerning first=114  second=44  amount=-1
kerning first=114  second=46  amount=-1
kerning first=114  second=100  amount=-1
kerning first=114  second=102  amount=1
kerning first=45  second=84  amount=-1
kerning first=45  second=89  amount=-1
